%YAML 1.1
%TAG !u! tag:unity3d.com,2011:
--- !u!114 &11400000
MonoBehaviour:
  m_ObjectHideFlags: 0
  m_CorrespondingSourceObject: {fileID: 0}
  m_PrefabInstance: {fileID: 0}
  m_PrefabAsset: {fileID: 0}
  m_GameObject: {fileID: 0}
  m_Enabled: 1
  m_EditorHideFlags: 0
  m_Script: {fileID: -1893448595, guid: a040fb66244a7f54289914d98ea4ef7d, type: 3}
  m_Name: on collision with
  m_EditorClassIdentifier: 
  _data:
    _json: '{"graph":{"variables":{"collection":{"$content":[],"$version":"A"},"$version":"A"},"controlInputDefinitions":[],"controlOutputDefinitions":[{"key":"target","label":null,"summary":null,"hideLabel":false},{"key":"other","label":null,"summary":null,"hideLabel":false}],"valueInputDefinitions":[{"hasDefaultValue":true,"defaultValue":null,"_type":"System.String","key":"tag","label":null,"summary":null,"hideLabel":false}],"valueOutputDefinitions":[{"_type":"UnityEngine.GameObject","key":"object","label":null,"summary":null,"hideLabel":false}],"title":null,"summary":null,"pan":{"x":-383.25,"y":-293.0},"zoom":1.0,"elements":[{"coroutine":false,"defaultValues":{"target":null},"position":{"x":-711.0,"y":-559.0},"guid":"c4e53b85-7b1a-4c18-8400-75c86d64e167","$version":"A","$type":"Bolt.OnCollisionEnter2D","$id":"13"},{"defaultValues":{},"position":{"x":-331.0,"y":-498.0},"guid":"46d57875-b746-46c4-af25-0e7fa9813abb","$version":"A","$type":"Bolt.Branch","$id":"15"},{"chainable":false,"member":{"name":"CompareTag","parameterTypes":["System.String"],"targetType":"UnityEngine.GameObject","targetTypeName":"UnityEngine.GameObject","$version":"A"},"defaultValues":{"target":null,"%tag":{"$content":"player","$type":"System.String"}},"position":{"x":-435.0,"y":-348.0},"guid":"efd8e4fd-604d-4300-8f41-8d226d52cc94","$version":"A","$type":"Bolt.InvokeMember","$id":"17"},{"defaultValues":{},"position":{"x":-708.0,"y":-319.0},"guid":"0a88f396-d906-4ee0-8c88-e06543937de3","$version":"A","$type":"Bolt.GraphInput","$id":"20"},{"defaultValues":{},"position":{"x":-190.0,"y":-488.0},"guid":"b3a61108-4c44-4cf9-9415-55cfff85a12f","$version":"A","$type":"Bolt.GraphOutput","$id":"22"},{"sourceUnit":{"$ref":"13"},"sourceKey":"trigger","destinationUnit":{"$ref":"15"},"destinationKey":"enter","guid":"721fbd9f-9c6a-4084-a17e-931f34bc58b9","$type":"Bolt.ControlConnection"},{"sourceUnit":{"$ref":"15"},"sourceKey":"ifTrue","destinationUnit":{"$ref":"22"},"destinationKey":"target","guid":"947c9ff8-d096-43ea-9b4e-69b4d5d1ad79","$type":"Bolt.ControlConnection"},{"sourceUnit":{"$ref":"15"},"sourceKey":"ifFalse","destinationUnit":{"$ref":"22"},"destinationKey":"other","guid":"72aec102-426a-472f-8082-70794a044990","$type":"Bolt.ControlConnection"},{"sourceUnit":{"$ref":"13"},"sourceKey":"collider","destinationUnit":{"$ref":"17"},"destinationKey":"target","guid":"afe21b13-c161-40a1-8fdb-a0952e136b64","$type":"Bolt.ValueConnection"},{"sourceUnit":{"$ref":"17"},"sourceKey":"result","destinationUnit":{"$ref":"15"},"destinationKey":"condition","guid":"62ae0b4c-0a9b-4361-9286-ca9121bf722d","$type":"Bolt.ValueConnection"},{"sourceUnit":{"$ref":"20"},"sourceKey":"tag","destinationUnit":{"$ref":"17"},"destinationKey":"%tag","guid":"cd92536c-7bf7-483d-986a-d84f45629775","$type":"Bolt.ValueConnection"},{"sourceUnit":{"$ref":"13"},"sourceKey":"collider","destinationUnit":{"$ref":"22"},"destinationKey":"object","guid":"751bd071-e6a1-4808-9cda-04a19af155db","$type":"Bolt.ValueConnection"}],"$version":"A"}}'
    _objectReferences: []
