%YAML 1.1
%TAG !u! tag:unity3d.com,2011:
--- !u!114 &11400000
MonoBehaviour:
  m_ObjectHideFlags: 0
  m_CorrespondingSourceObject: {fileID: 0}
  m_PrefabInstance: {fileID: 0}
  m_PrefabAsset: {fileID: 0}
  m_GameObject: {fileID: 0}
  m_Enabled: 1
  m_EditorHideFlags: 0
  m_Script: {fileID: -1893448595, guid: a040fb66244a7f54289914d98ea4ef7d, type: 3}
  m_Name: spike death
  m_EditorClassIdentifier: 
  _data:
    _json: '{"graph":{"variables":{"collection":{"$content":[],"$version":"A"},"$version":"A"},"controlInputDefinitions":[],"controlOutputDefinitions":[],"valueInputDefinitions":[],"valueOutputDefinitions":[],"title":null,"summary":null,"pan":{"x":195.0,"y":-37.0},"zoom":1.0,"elements":[{"coroutine":false,"defaultValues":{"target":null},"position":{"x":-177.0,"y":-253.0},"guid":"7c04be97-f871-47cf-a94e-41c2d31fc949","$version":"A","$type":"Bolt.OnCollisionEnter2D","$id":"9"},{"defaultValues":{},"position":{"x":198.0,"y":-219.0},"guid":"e5ac78c6-11e2-4f0b-837a-59fb5f8e2b6f","$version":"A","$type":"Bolt.Branch","$id":"11"},{"chainable":false,"member":{"name":"CompareTag","parameterTypes":["System.String"],"targetType":"UnityEngine.GameObject","targetTypeName":"UnityEngine.GameObject","$version":"A"},"defaultValues":{"target":null,"%tag":{"$content":"player","$type":"System.String"}},"position":{"x":48.0,"y":-52.0},"guid":"fb320a37-deac-4dc2-8c09-e1c315aca230","$version":"A","$type":"Bolt.InvokeMember","$id":"13"},{"argumentCount":0,"defaultValues":{"name":{"$content":"Death","$type":"System.String"},"target":null},"position":{"x":357.0,"y":-238.0},"guid":"1aa3a8d1-4376-4c7e-beeb-2026441108b5","$version":"A","$type":"Bolt.TriggerCustomEvent","$id":"16"},{"sourceUnit":{"$ref":"9"},"sourceKey":"trigger","destinationUnit":{"$ref":"11"},"destinationKey":"enter","guid":"e15f50ee-4279-4fe1-83ca-26ff0dab4508","$type":"Bolt.ControlConnection"},{"sourceUnit":{"$ref":"11"},"sourceKey":"ifTrue","destinationUnit":{"$ref":"16"},"destinationKey":"enter","guid":"5652e360-0eaf-4024-9634-84f7503e280f","$type":"Bolt.ControlConnection"},{"sourceUnit":{"$ref":"9"},"sourceKey":"collider","destinationUnit":{"$ref":"13"},"destinationKey":"target","guid":"b3f8f82d-802f-493b-9ac0-079ad9d4c21e","$type":"Bolt.ValueConnection"},{"sourceUnit":{"$ref":"13"},"sourceKey":"result","destinationUnit":{"$ref":"11"},"destinationKey":"condition","guid":"5b28f161-bb76-4ed1-af9f-a292c67add77","$type":"Bolt.ValueConnection"},{"sourceUnit":{"$ref":"9"},"sourceKey":"collider","destinationUnit":{"$ref":"16"},"destinationKey":"target","guid":"8f19a51a-6416-4083-9c15-2901d97c1e68","$type":"Bolt.ValueConnection"}],"$version":"A"}}'
    _objectReferences: []
