%YAML 1.1
%TAG !u! tag:unity3d.com,2011:
--- !u!114 &11400000
MonoBehaviour:
  m_ObjectHideFlags: 0
  m_CorrespondingSourceObject: {fileID: 0}
  m_PrefabInstance: {fileID: 0}
  m_PrefabAsset: {fileID: 0}
  m_GameObject: {fileID: 0}
  m_Enabled: 1
  m_EditorHideFlags: 0
  m_Script: {fileID: -1893448595, guid: a040fb66244a7f54289914d98ea4ef7d, type: 3}
  m_Name: change mind
  m_EditorClassIdentifier: 
  _data:
    _json: '{"graph":{"variables":{"collection":{"$content":[],"$version":"A"},"$version":"A"},"controlInputDefinitions":[],"controlOutputDefinitions":[],"valueInputDefinitions":[],"valueOutputDefinitions":[],"title":null,"summary":null,"pan":{"x":174.0,"y":112.0},"zoom":1.0,"elements":[{"chainable":false,"member":{"name":"Range","parameterTypes":["System.Single","System.Single"],"targetType":"UnityEngine.Random","targetTypeName":"UnityEngine.Random","$version":"A"},"defaultValues":{"%min":{"$content":1.0,"$type":"System.Single"},"%max":{"$content":3.0,"$type":"System.Single"}},"position":{"x":-167.0,"y":-6.0},"guid":"86ed7be2-af82-479f-b5a1-33b28f8be22c","$version":"A","$type":"Bolt.InvokeMember","$id":"9"},{"defaultValues":{},"position":{"x":373.0,"y":-55.0},"guid":"efd7c369-1e69-4d98-8a2e-d85d0c76e509","$version":"A","$type":"Bolt.TriggerStateTransition","$id":"12"},{"coroutine":true,"defaultValues":{},"position":{"x":-157.0,"y":-136.0},"guid":"f75883a3-9c89-4cd3-9407-d7ee3c7d84cd","$version":"A","$type":"Bolt.OnEnterState","$id":"14"},{"defaultValues":{"duration":{"$content":1.0,"$type":"System.Single"},"unscaledTime":{"$content":false,"$type":"System.Boolean"}},"position":{"x":79.0,"y":-103.0},"guid":"2f0f7161-ab0a-42ca-b371-b94a867dd2d2","$version":"A","$type":"Bolt.Timer","$id":"16"},{"sourceUnit":{"$ref":"16"},"sourceKey":"completed","destinationUnit":{"$ref":"12"},"destinationKey":"trigger","guid":"c5ca532d-2b52-40f2-8b9b-b0a1ed17acd2","$type":"Bolt.ControlConnection"},{"sourceUnit":{"$ref":"14"},"sourceKey":"trigger","destinationUnit":{"$ref":"16"},"destinationKey":"start","guid":"5e64de6a-d4e8-4d74-94df-ca9feb7cc99c","$type":"Bolt.ControlConnection"},{"sourceUnit":{"$ref":"9"},"sourceKey":"result","destinationUnit":{"$ref":"16"},"destinationKey":"duration","guid":"effa1893-058f-46d5-af54-af28604ee971","$type":"Bolt.ValueConnection"}],"$version":"A"}}'
    _objectReferences: []
