%YAML 1.1
%TAG !u! tag:unity3d.com,2011:
--- !u!114 &11400000
MonoBehaviour:
  m_ObjectHideFlags: 0
  m_CorrespondingSourceObject: {fileID: 0}
  m_PrefabInstance: {fileID: 0}
  m_PrefabAsset: {fileID: 0}
  m_GameObject: {fileID: 0}
  m_Enabled: 1
  m_EditorHideFlags: 0
  m_Script: {fileID: -1893448595, guid: a040fb66244a7f54289914d98ea4ef7d, type: 3}
  m_Name: enemywalk
  m_EditorClassIdentifier: 
  _data:
    _json: '{"graph":{"variables":{"collection":{"$content":[],"$version":"A"},"$version":"A"},"controlInputDefinitions":[],"controlOutputDefinitions":[],"valueInputDefinitions":[{"hasDefaultValue":true,"defaultValue":{"$content":0.0,"$type":"System.Single"},"_type":"System.Single","key":"direction","label":null,"summary":null,"hideLabel":false}],"valueOutputDefinitions":[],"title":null,"summary":null,"pan":{"x":514.0963,"y":30.84952},"zoom":0.8,"elements":[{"defaultValues":{},"position":{"x":-175.0,"y":-89.0},"guid":"9a45bccf-e8a2-447f-9761-2d880815c208","$version":"A","$type":"Bolt.GraphInput","$id":"10"},{"kind":"Graph","defaultValues":{"name":{"$content":"movement","$type":"System.String"}},"position":{"x":276.0,"y":-293.0},"guid":"1ddd4c97-b39a-4116-9be4-356110a40660","$version":"A","$type":"Bolt.SetVariable","$id":"12"},{"chainable":false,"member":{"name":"localScale","parameterTypes":null,"targetType":"UnityEngine.Transform","targetTypeName":"UnityEngine.Transform","$version":"A"},"defaultValues":{"target":null,"input":{"x":0.0,"y":0.0,"z":0.0,"$type":"UnityEngine.Vector3"}},"position":{"x":679.0,"y":-221.0},"guid":"8e61bedf-96f6-4607-86e8-3796d9488bf5","$version":"A","$type":"Bolt.SetMember","$id":"14"},{"defaultValues":{},"position":{"x":-9.0,"y":-53.0},"guid":"86e70d39-59de-4951-b79d-d5778a6b6552","$version":"A","$type":"Bolt.ScalarNormalize","$id":"17"},{"defaultValues":{"b":{"$content":1.0,"$type":"System.Single"}},"position":{"x":147.0,"y":-187.0},"guid":"552289d6-6636-495e-9b86-02e365d4a976","$version":"A","$type":"Bolt.ScalarMultiply","$id":"19"},{"defaultValues":{},"position":{"x":505.0,"y":-301.0},"guid":"815afe9b-d55a-4277-a323-c55af131c8d1","$version":"A","$type":"Bolt.Branch","$id":"21"},{"numeric":true,"defaultValues":{"b":{"$content":0.0,"$type":"System.Single"}},"position":{"x":308.0,"y":-145.0},"guid":"1e8864e8-9c78-46cf-8415-94fd958d42de","$version":"A","$type":"Bolt.Equal","$id":"23"},{"specifyFallback":false,"kind":"Object","defaultValues":{"name":{"$content":"speed","$type":"System.String"},"object":null},"position":{"x":-76.0,"y":-230.0},"guid":"01e43aa5-a71b-4a81-9136-3415d0334ae1","$version":"A","$type":"Bolt.GetVariable","$id":"25"},{"chainable":false,"member":{"name":".ctor","parameterTypes":["System.Single","System.Single","System.Single"],"targetType":"UnityEngine.Vector3","targetTypeName":"UnityEngine.Vector3","$version":"A"},"defaultValues":{"%x":{"$content":0.0,"$type":"System.Single"},"%y":{"$content":1.0,"$type":"System.Single"},"%z":{"$content":1.0,"$type":"System.Single"}},"position":{"x":451.0,"y":-90.0},"guid":"d83475d2-1341-4539-b83b-732dad6532d2","$version":"A","$type":"Bolt.InvokeMember","$id":"27"},{"chainable":false,"member":{"name":"velocity","parameterTypes":null,"targetType":"UnityEngine.Rigidbody2D","targetTypeName":"UnityEngine.Rigidbody2D","$version":"A"},"defaultValues":{"target":null,"input":{"x":0.0,"y":0.0,"$type":"UnityEngine.Vector2"}},"position":{"x":1040.0,"y":-306.0},"guid":"4dcaeff9-ad7f-46b3-801e-f33f2fa5b230","$version":"A","$type":"Bolt.SetMember","$id":"30"},{"member":{"name":"y","parameterTypes":null,"targetType":"UnityEngine.Vector2","targetTypeName":"UnityEngine.Vector2","$version":"A"},"defaultValues":{"target":{"x":0.0,"y":0.0,"$type":"UnityEngine.Vector2"}},"position":{"x":837.0,"y":-15.0},"guid":"2953e119-a504-4b5f-82b2-5ba702db012c","$version":"A","$type":"Bolt.GetMember","$id":"33"},{"member":{"name":"velocity","parameterTypes":null,"targetType":"UnityEngine.Rigidbody2D","targetTypeName":"UnityEngine.Rigidbody2D","$version":"A"},"defaultValues":{"target":null},"position":{"x":658.0,"y":-27.0},"guid":"93ebcbf7-9b2d-4a4c-846c-d1e91350c0f7","$version":"A","$type":"Bolt.GetMember","$id":"36"},{"coroutine":false,"defaultValues":{},"position":{"x":48.0,"y":-336.0},"guid":"255d0882-ae7f-4a51-8b91-529c6c0815ff","$version":"A","$type":"Bolt.Update","$id":"39"},{"chainable":false,"member":{"name":".ctor","parameterTypes":["System.Single","System.Single"],"targetType":"UnityEngine.Vector2","targetTypeName":"UnityEngine.Vector2","$version":"A"},"defaultValues":{"%x":{"$content":0.0,"$type":"System.Single"},"%y":{"$content":0.0,"$type":"System.Single"}},"position":{"x":1030.0,"y":-88.0},"guid":"0c3b8d4e-12ca-4773-83a5-03b4d58a6375","$version":"A","$type":"Bolt.InvokeMember","$id":"41"},{"specifyFallback":false,"kind":"Graph","defaultValues":{"name":{"$content":"movement","$type":"System.String"}},"position":{"x":842.0,"y":-138.0},"guid":"e442bf97-4a83-421f-9293-6611e5df40d5","$version":"A","$type":"Bolt.GetVariable","$id":"44"},{"sourceUnit":{"$ref":"12"},"sourceKey":"assigned","destinationUnit":{"$ref":"21"},"destinationKey":"enter","guid":"f7a5b165-cda2-4260-bc63-5923e20f49da","$type":"Bolt.ControlConnection"},{"sourceUnit":{"$ref":"21"},"sourceKey":"ifFalse","destinationUnit":{"$ref":"14"},"destinationKey":"assign","guid":"e6de9a6c-af87-4d65-bbe2-68b24c106f53","$type":"Bolt.ControlConnection"},{"sourceUnit":{"$ref":"14"},"sourceKey":"assigned","destinationUnit":{"$ref":"30"},"destinationKey":"assign","guid":"b5be9c8c-f1c3-4193-ba5f-ec67ae001ac3","$type":"Bolt.ControlConnection"},{"sourceUnit":{"$ref":"21"},"sourceKey":"ifTrue","destinationUnit":{"$ref":"30"},"destinationKey":"assign","guid":"92a19bfe-29e6-48f4-a88a-94efe945b607","$type":"Bolt.ControlConnection"},{"sourceUnit":{"$ref":"39"},"sourceKey":"trigger","destinationUnit":{"$ref":"12"},"destinationKey":"assign","guid":"e9b76fb1-8e94-44b9-96b8-7ab47b2ad749","$type":"Bolt.ControlConnection"},{"sourceUnit":{"$ref":"41"},"sourceKey":"result","destinationUnit":{"$ref":"30"},"destinationKey":"input","guid":"2f56e801-7e51-47e2-8dc0-6cf638808297","$type":"Bolt.ValueConnection"},{"sourceUnit":{"$ref":"44"},"sourceKey":"value","destinationUnit":{"$ref":"41"},"destinationKey":"%x","guid":"19e8e143-8aa9-4a8a-b48b-47ee24fca8ef","$type":"Bolt.ValueConnection"},{"sourceUnit":{"$ref":"23"},"sourceKey":"equal","destinationUnit":{"$ref":"21"},"destinationKey":"condition","guid":"ca97b046-d8dd-4da4-a7e3-2e2768be9b07","$type":"Bolt.ValueConnection"},{"sourceUnit":{"$ref":"36"},"sourceKey":"value","destinationUnit":{"$ref":"33"},"destinationKey":"target","guid":"a0669ec8-fd67-452d-8ccd-8a81a8a242da","$type":"Bolt.ValueConnection"},{"sourceUnit":{"$ref":"25"},"sourceKey":"value","destinationUnit":{"$ref":"19"},"destinationKey":"a","guid":"1eead452-0152-4151-abec-391515ab2490","$type":"Bolt.ValueConnection"},{"sourceUnit":{"$ref":"17"},"sourceKey":"output","destinationUnit":{"$ref":"23"},"destinationKey":"a","guid":"17ec7f53-0a2d-4e9f-bc54-2d5f19bc46d9","$type":"Bolt.ValueConnection"},{"sourceUnit":{"$ref":"33"},"sourceKey":"value","destinationUnit":{"$ref":"41"},"destinationKey":"%y","guid":"dab8d654-4346-4215-8e1c-6c8744392aa6","$type":"Bolt.ValueConnection"},{"sourceUnit":{"$ref":"19"},"sourceKey":"product","destinationUnit":{"$ref":"12"},"destinationKey":"input","guid":"f9318a4f-b1ff-4fac-977b-6339361860df","$type":"Bolt.ValueConnection"},{"sourceUnit":{"$ref":"27"},"sourceKey":"result","destinationUnit":{"$ref":"14"},"destinationKey":"input","guid":"c204e053-7b17-4c13-895e-43959dd16631","$type":"Bolt.ValueConnection"},{"sourceUnit":{"$ref":"17"},"sourceKey":"output","destinationUnit":{"$ref":"19"},"destinationKey":"b","guid":"cc2427bb-646a-4f9c-9526-5a1a66c2add2","$type":"Bolt.ValueConnection"},{"sourceUnit":{"$ref":"17"},"sourceKey":"output","destinationUnit":{"$ref":"27"},"destinationKey":"%x","guid":"c25b7130-8740-420b-8a50-c51df37f288d","$type":"Bolt.ValueConnection"},{"sourceUnit":{"$ref":"10"},"sourceKey":"direction","destinationUnit":{"$ref":"17"},"destinationKey":"input","guid":"2fc43afa-c61e-4d0c-9df2-f6dde7afed87","$type":"Bolt.ValueConnection"}],"$version":"A"}}'
    _objectReferences: []
